%!PS-Adobe-3.0 EPSF-3.0
%%Creator: cairo 1.14.6 (http://cairographics.org)
%%CreationDate: Sat Nov 11 00:46:07 2017
%%Pages: 1
%%DocumentData: Clean7Bit
%%LanguageLevel: 2
%%BoundingBox: 0 -1 576 391
%%EndComments
%%BeginProlog
save
50 dict begin
/q { gsave } bind def
/Q { grestore } bind def
/cm { 6 array astore concat } bind def
/w { setlinewidth } bind def
/J { setlinecap } bind def
/j { setlinejoin } bind def
/M { setmiterlimit } bind def
/d { setdash } bind def
/m { moveto } bind def
/l { lineto } bind def
/c { curveto } bind def
/h { closepath } bind def
/re { exch dup neg 3 1 roll 5 3 roll moveto 0 rlineto
      0 exch rlineto 0 rlineto closepath } bind def
/S { stroke } bind def
/f { fill } bind def
/f* { eofill } bind def
/n { newpath } bind def
/W { clip } bind def
/W* { eoclip } bind def
/BT { } bind def
/ET { } bind def
/pdfmark where { pop globaldict /?pdfmark /exec load put }
    { globaldict begin /?pdfmark /pop load def /pdfmark
    /cleartomark load def end } ifelse
/BDC { mark 3 1 roll /BDC pdfmark } bind def
/EMC { mark /EMC pdfmark } bind def
/cairo_store_point { /cairo_point_y exch def /cairo_point_x exch def } def
/Tj { show currentpoint cairo_store_point } bind def
/TJ {
  {
    dup
    type /stringtype eq
    { show } { -0.001 mul 0 cairo_font_matrix dtransform rmoveto } ifelse
  } forall
  currentpoint cairo_store_point
} bind def
/cairo_selectfont { cairo_font_matrix aload pop pop pop 0 0 6 array astore
    cairo_font exch selectfont cairo_point_x cairo_point_y moveto } bind def
/Tf { pop /cairo_font exch def /cairo_font_matrix where
      { pop cairo_selectfont } if } bind def
/Td { matrix translate cairo_font_matrix matrix concatmatrix dup
      /cairo_font_matrix exch def dup 4 get exch 5 get cairo_store_point
      /cairo_font where { pop cairo_selectfont } if } bind def
/Tm { 2 copy 8 2 roll 6 array astore /cairo_font_matrix exch def
      cairo_store_point /cairo_font where { pop cairo_selectfont } if } bind def
/g { setgray } bind def
/rg { setrgbcolor } bind def
/d1 { setcachedevice } bind def
%%EndProlog
%%BeginSetup
%%EndSetup
%%Page: 1 1
%%BeginPageSetup
%%PageBoundingBox: 0 -1 576 391
%%EndPageSetup
q 0 -1 576 392 rectclip q
1 0.501961 0.501961 rg
102.844 320.623 m 46.809 320.623 1.383 305.478 1.383 286.803 c 1.383 34.463
 l 1.383 15.783 46.809 0.642 102.844 0.642 c 158.879 0.642 204.305 15.783
 204.305 34.463 c 204.305 286.803 l 204.305 305.478 158.883 320.623 102.844
 320.623 c h
102.844 320.623 m f
0 g
1.285949 w
2 J
1 j
[] 0.0 d
4 M q 1 0 0 -1 0 390.935364 cm
102.844 70.312 m 46.809 70.312 1.383 85.457 1.383 104.133 c 1.383 356.473
 l 1.383 375.152 46.809 390.293 102.844 390.293 c 158.879 390.293 204.305
 375.152 204.305 356.473 c 204.305 104.133 l 204.305 85.457 158.883 70.312
 102.844 70.312 c h
102.844 70.312 m S Q
1 0.807843 0.807843 rg
102.477 321.666 m 46.496 321.666 1.117 306.791 1.117 288.439 c 1.117 270.092
 46.496 255.217 102.477 255.217 c 158.453 255.217 203.832 270.092 203.832
 288.439 c 203.832 306.791 158.453 321.666 102.477 321.666 c h
102.477 304.654 m 129.793 304.654 151.938 297.396 151.938 288.439 c 151.938
 279.486 129.793 272.228 102.477 272.228 c 75.156 272.228 53.012 279.486
 53.012 288.439 c 53.012 297.396 75.156 304.654 102.477 304.654 c h
102.477 304.654 m f
0.0509804 g
2.236123 w
[ 4.472247 2.236123] 0 d
q 1 0 0 -0.330558 0 390.935364 cm
102.477 209.554 m 46.496 209.554 1.117 254.553 1.117 310.07 c 1.117 365.575
 46.496 410.575 102.477 410.575 c 158.453 410.575 203.832 365.575 203.832
 310.07 c 203.832 254.553 158.453 209.554 102.477 209.554 c h
102.477 261.017 m 129.793 261.017 151.938 282.974 151.938 310.07 c 151.938
 337.155 129.793 359.111 102.477 359.111 c 75.156 359.111 53.012 337.155
 53.012 310.07 c 53.012 282.974 75.156 261.017 102.477 261.017 c h
102.477 261.017 m S Q
0.827451 0.286275 0.129412 rg
101.875 255.025 m 102.664 321.857 l f*
0.841756 w
0 J
0 j
[] 0.0 d
q 1 0 0 -0.330558 0 390.935364 cm
101.875 411.154 m 102.664 208.975 l S Q
102.578 312.373 m 102.594 313.908 l f*
2.93033 w
q 1 0 0 -0.330558 0 390.935364 cm
102.578 237.667 m 102.594 233.022 l S Q
99.031 312.045 m 102.59 315.217 l 106.094 312.037 l 104.016 312.549 101.16
 312.549 99.031 312.045 c h
99.031 312.045 m f*
0.549434 w
1 j
q -0.00292766 -0.330558 -1 0.000967762 0 390.935364 cm
238.367 -99.729 m 228.761 -103.26 l 238.37 -106.792 l 236.828 -104.709 
236.837 -101.854 238.367 -99.729 c h
238.367 -99.729 m S Q
101.914 264.877 m 101.926 263.342 l f*
2.93033 w
0 j
q 1 0 0 -0.330558 0 390.935364 cm
101.914 381.351 m 101.926 385.995 l S Q
105.457 265.213 m 101.953 262.033 l 98.391 265.205 l 100.48 264.701 103.336
 264.705 105.457 265.213 c h
105.457 265.213 m f*
0.549434 w
1 j
q -0.00292766 0.330558 1 0.000967762 0 390.935364 cm
-380.641 104.343 m -390.249 100.811 l -380.644 97.276 l -382.174 99.362
 -382.171 102.217 -380.641 104.343 c h
-380.641 104.343 m S Q
1.379 288.763 m 203.57 288.506 l f*
0.841756 w
0 j
q 1 0 0 -0.330558 0 390.935364 cm
1.379 309.089 m 203.57 309.869 l S Q
174.875 288.533 m 179.512 288.529 l f*
2.93033 w
q 1 0 0 -0.330558 0 390.935364 cm
174.875 309.787 m 179.512 309.798 l S Q
173.879 289.705 m 183.477 288.529 l 173.859 287.369 l 175.398 288.056 175.398
 289.002 173.879 289.705 c h
173.879 289.705 m f*
0.549434 w
1 j
q -1 0.000964257 0.00291706 0.330558 0 390.935364 cm
-174.771 -305.732 m -184.379 -309.261 l -174.772 -312.798 l -176.305 -310.714
 -176.296 -307.854 -174.771 -305.732 c h
-174.771 -305.732 m S Q
31.188 288.752 m 26.547 288.748 l f*
2.93033 w
0 j
q 1 0 0 -0.330558 0 390.935364 cm
31.188 309.125 m 26.547 309.137 l S Q
32.199 287.58 m 22.586 288.74 l 32.18 289.916 l 30.652 289.224 30.668 288.283
 32.199 287.58 c h
32.199 287.58 m f*
0.549434 w
1 j
q 1 0.000964258 0.00291707 -0.330558 0 390.935364 cm
31.287 312.761 m 21.684 309.224 l 31.288 305.695 l 29.755 307.782 29.762
 310.63 31.287 312.761 c h
31.287 312.761 m S Q
152.91 259.439 m 52.5 317.451 l f*
0.841756 w
0 j
q 1 0 0 -0.330558 0 390.935364 cm
152.91 397.801 m 52.5 222.304 l S Q
66.773 309.224 m 64.469 310.553 l f*
2.93033 w
q 1 0 0 -0.330558 0 390.935364 cm
66.773 247.191 m 64.469 243.173 l S Q
64.199 308.353 m 62.484 311.689 l 70.324 309.513 l 67.754 309.611 65.281
 309.138 64.199 308.353 c h
64.199 308.353 m f*
0.476628 w
1 j
q 0.573456 -0.330558 -1 -0.18956 0 390.935364 cm
215.706 59.499 m 207.372 56.434 l 215.709 53.375 l 214.377 55.182 214.386
 57.66 215.706 59.499 c h
215.706 59.499 m S Q
138.039 267.978 m 140.371 266.654 l f*
2.93033 w
0 j
q 1 0 0 -0.330558 0 390.935364 cm
138.039 371.969 m 140.371 375.975 l S Q
140.602 268.857 m 142.375 265.525 l 134.492 267.681 l 137.066 267.592 139.531
 268.068 140.602 268.857 c h
140.602 268.857 m f*
0.475021 w
1 j
q -0.581254 0.330558 1 0.192138 0 390.935364 cm
-337.133 -55.358 m -345.437 -58.412 l -337.137 -61.47 l -338.458 -59.664
 -338.452 -57.195 -337.133 -55.358 c h
-337.133 -55.358 m S Q
14.844 272.053 m 190.336 305.244 l f*
0.841756 w
0 j
q 1 0 0 -0.330558 0 390.935364 cm
14.844 359.643 m 190.336 259.233 l S Q
165.445 300.525 m 169.469 301.287 l f*
2.93033 w
q 1 0 0 -0.330558 0 390.935364 cm
165.445 273.508 m 169.469 271.204 l S Q
162.809 301.377 m 172.898 301.943 l 166.324 299.349 l 166.617 300.201 165.191
 301.017 162.809 301.377 c h
162.809 301.377 m f*
0.476626 w
1 j
q -1 -0.189563 -0.573465 0.330558 0 390.935364 cm
-5.598 -274.142 m -13.93 -277.207 l -5.597 -280.275 l -6.929 -278.462 -6.922
 -275.988 -5.598 -274.142 c h
-5.598 -274.142 m S Q
40.672 276.967 m 36.664 276.197 l f*
2.93033 w
0 j
q 1 0 0 -0.330558 0 390.935364 cm
40.672 344.777 m 36.664 347.105 l S Q
43.324 276.123 m 33.246 275.537 l 39.773 278.138 l 39.496 277.291 40.938
 276.474 43.324 276.123 c h
43.324 276.123 m f*
0.475021 w
1 j
q 1 0.192138 0.581253 -0.330558 0 390.935364 cm
-118.52 278.44 m -126.823 275.386 l -118.525 272.339 l -119.846 274.135
 -119.842 276.608 -118.52 278.44 c h
-118.52 278.44 m S Q
189.941 271.471 m 15.238 305.111 l f*
0.841756 w
0 j
q 1 0 0 -0.330558 0 390.935364 cm
189.941 361.404 m 15.238 259.635 l S Q
40.043 300.346 m 36.035 301.115 l f*
2.93033 w
q 1 0 0 -0.330558 0 390.935364 cm
40.043 274.052 m 36.035 271.724 l S Q
39.133 299.166 m 32.602 301.771 l 42.68 301.185 l 40.305 300.842 38.879
 300.025 39.133 299.166 c h
39.133 299.166 m f*
0.475022 w
1 j
q 1 -0.192136 -0.581248 -0.330558 0 390.935364 cm
149.867 190.511 m 141.56 187.457 l 149.864 184.403 l 148.54 186.212 148.547
 188.678 149.867 190.511 c h
149.867 190.511 m S Q
164.148 276.408 m 168.172 275.642 l f*
2.93033 w
0 j
q 1 0 0 -0.330558 0 390.935364 cm
164.148 346.467 m 168.172 348.783 l S Q
165.043 277.588 m 171.617 274.998 l 161.527 275.564 l 163.895 275.908 165.309
 276.728 165.043 277.588 c h
165.043 277.588 m f*
0.476626 w
1 j
q -1 0.189563 0.573465 0.330558 0 390.935364 cm
-272.175 -186.815 m -280.503 -189.874 l -272.171 -192.939 l -273.504 -191.135
 -273.497 -188.657 -272.175 -186.815 c h
-272.175 -186.815 m S Q
51.297 259.572 m 152.609 316.779 l f*
0.841756 w
0 j
q 1 0 0 -0.330558 0 390.935364 cm
51.297 397.399 m 152.609 224.337 l S Q
66.23 268.099 m 63.922 266.767 l f*
2.93033 w
q 1 0 0 -0.330558 0 390.935364 cm
66.23 371.602 m 63.922 375.632 l S Q
69.809 267.803 m 61.965 265.631 l 63.68 268.963 l 64.723 268.181 67.203
 267.717 69.809 267.803 c h
69.809 267.803 m f*
0.476626 w
1 j
q 0.573467 0.330558 1 -0.189564 0 390.935364 cm
-250.189 213.284 m -258.518 210.217 l -250.193 207.157 l -251.521 208.962
 -251.509 211.435 -250.189 213.284 c h
-250.189 213.284 m S Q
1 0.501961 0.501961 rg
151.949 288.439 m 151.949 279.619 129.801 272.467 102.473 272.467 c 75.148
 272.467 53 279.619 53 288.439 c 53 297.263 75.148 304.416 102.473 304.416
 c 129.801 304.416 151.949 297.263 151.949 288.439 c h
151.949 288.439 m f
0.172549 g
1.965486 w
2 J
q 1 0 0 -0.330558 0 390.935364 cm
151.949 310.07 m 151.949 336.753 129.801 358.391 102.473 358.391 c 75.148
 358.391 53 336.753 53 310.07 c 53 283.375 75.148 261.738 102.473 261.738
 c 129.801 261.738 151.949 283.375 151.949 310.07 c h
151.949 310.07 m S Q
0.827451 0.286275 0.129412 rg
138.262 308.709 m 140.57 310.037 l f*
2.93033 w
0 J
0 j
q 1 0 0 -0.330558 0 390.935364 cm
138.262 248.751 m 140.57 244.733 l S Q
134.688 309.006 m 142.527 311.178 l 140.816 307.842 l 139.77 308.627 137.289
 309.092 134.688 309.006 c h
134.688 309.006 m f*
0.476626 w
1 j
q -0.573467 -0.330558 -1 0.189564 0 390.935364 cm
128.391 -208.315 m 120.063 -211.38 l 128.396 -214.447 l 127.06 -212.634
 127.073 -210.161 128.391 -208.315 c h
128.391 -208.315 m S Q
1 0.807843 0.807843 rg
475.09 259.701 m 420.125 259.701 375.57 215.517 375.57 161.017 c 375.57
 106.513 420.125 62.334 475.09 62.334 c 530.051 62.334 574.605 106.513 574.605
 161.017 c 574.605 215.517 530.051 259.701 475.09 259.701 c h
475.09 209.174 m 501.91 209.174 523.652 187.615 523.652 161.017 c 523.652
 134.42 501.91 112.857 475.09 112.857 c 448.266 112.857 426.523 134.42 426.523
 161.017 c 426.523 187.615 448.266 209.174 475.09 209.174 c h
475.09 209.174 m f
0.0509804 g
2.195576 w
2 J
[ 4.391152 2.195576] 0 d
q 1 0 0 -1 0 390.935364 cm
475.09 131.234 m 420.125 131.234 375.57 175.418 375.57 229.918 c 375.57
 284.422 420.125 328.602 475.09 328.602 c 530.051 328.602 574.605 284.422
 574.605 229.918 c 574.605 175.418 530.051 131.234 475.09 131.234 c h
475.09 181.762 m 501.91 181.762 523.652 203.32 523.652 229.918 c 523.652
 256.516 501.91 278.078 475.09 278.078 c 448.266 278.078 426.523 256.516
 426.523 229.918 c 426.523 203.32 448.266 181.762 475.09 181.762 c h
475.09 181.762 m S Q
0.827451 0.286275 0.129412 rg
474.5 61.756 m 475.273 260.279 l f*
0.826493 w
0 J
0 j
[] 0.0 d
q 1 0 0 -1 0 390.935364 cm
474.5 329.18 m 475.273 130.656 l S Q
475.191 232.103 m 475.207 236.658 l f*
2.877195 w
q 1 0 0 -1 0 390.935364 cm
475.191 158.832 m 475.207 154.277 l S Q
471.707 231.127 m 475.203 240.549 l 478.645 231.107 l 476.602 232.619 473.797
 232.619 471.707 231.127 c h
471.707 231.127 m f*
0.539472 w
1 j
q -0.00297484 -1 -1 0.00297484 0 390.935364 cm
158.404 -472.178 m 148.972 -475.646 l 158.403 -479.116 l 156.897 -477.068
 156.906 -474.264 158.404 -472.178 c h
158.404 -472.178 m S Q
474.535 91.021 m 474.551 86.467 l f*
2.877195 w
0 j
q 1 0 0 -1 0 390.935364 cm
474.535 299.914 m 474.551 304.469 l S Q
478.016 92.017 m 474.574 82.576 l 471.078 91.998 l 473.133 90.498 475.934
 90.513 478.016 92.017 c h
478.016 92.017 m f*
0.539472 w
1 j
q -0.00297484 1 1 0.00297484 0 390.935364 cm
-300.337 477.122 m -309.768 473.653 l -300.336 470.185 l -301.842 472.235
 -301.835 475.036 -300.337 477.122 c h
-300.337 477.122 m S Q
375.828 161.978 m 574.348 161.205 l f*
0.826493 w
0 j
q 1 0 0 -1 0 390.935364 cm
375.828 228.957 m 574.348 229.73 l S Q
546.176 161.287 m 550.73 161.275 l f*
2.877195 w
q 1 0 0 -1 0 390.935364 cm
546.176 229.648 m 550.73 229.66 l S Q
545.199 164.771 m 554.621 161.275 l 545.18 157.838 l 546.691 159.881 546.691
 162.681 545.199 164.771 c h
545.199 164.771 m f*
0.539472 w
1 j
q -1 0.00291534 0.00291534 1 0 390.935364 cm
-545.854 -224.573 m -555.286 -228.041 l -545.855 -231.506 l -547.36 -229.459
 -547.352 -226.658 -545.854 -224.573 c h
-545.854 -224.573 m S Q
405.094 161.943 m 400.539 161.931 l f*
2.877195 w
0 j
q 1 0 0 -1 0 390.935364 cm
405.094 228.992 m 400.539 229.004 l S Q
406.09 158.463 m 396.648 161.904 l 406.07 165.4 l 404.566 163.349 404.586
 160.549 406.09 158.463 c h
406.09 158.463 m f*
0.539472 w
1 j
q 1 0.00291534 0.00291534 -1 0 390.935364 cm
405.409 233.655 m 395.977 230.186 l 405.409 226.717 l 403.899 228.763 403.911
 231.564 405.409 233.655 c h
405.409 233.655 m S Q
524.609 74.877 m 426.02 247.189 l f*
0.826493 w
0 j
q 1 0 0 -1 0 390.935364 cm
524.609 316.059 m 426.02 143.746 l S Q
440.035 222.748 m 437.77 226.697 l f*
2.877195 w
q 1 0 0 -1 0 390.935364 cm
440.035 168.188 m 437.77 164.238 l S Q
437.504 220.162 m 435.824 230.068 l 443.523 223.611 l 440.996 223.9 438.57
 222.498 437.504 220.162 c h
437.504 220.162 m f*
0.467984 w
1 j
q 0.573461 -1 -1 -0.573461 0 390.935364 cm
317.314 -255.537 m 309.134 -258.548 l 317.316 -261.555 l 316.008 -259.778
 316.016 -257.347 317.314 -255.537 c h
317.314 -255.537 m S Q
510.008 100.24 m 512.297 96.303 l f*
2.877195 w
0 j
q 1 0 0 -1 0 390.935364 cm
510.008 290.695 m 512.297 294.633 l S Q
512.523 102.842 m 514.266 92.943 l 506.527 99.357 l 509.055 99.084 511.473
 100.498 512.523 102.842 c h
512.523 102.842 m f*
0.466408 w
1 j
q -0.581251 1 1 0.581251 0 390.935364 cm
-438.014 257.927 m -446.17 254.929 l -438.014 251.931 l -439.316 253.702
 -439.31 256.123 -438.014 257.927 c h
-438.014 257.927 m S Q
389.047 112.334 m 561.355 210.928 l f*
0.826493 w
0 j
q 1 0 0 -1 0 390.935364 cm
389.047 278.602 m 561.355 180.008 l S Q
536.918 196.912 m 540.867 199.178 l f*
2.877195 w
q 1 0 0 -1 0 390.935364 cm
536.918 194.023 m 540.867 191.758 l S Q
534.328 199.439 m 544.234 201.123 l 537.781 193.424 l 538.066 195.951 536.668
 198.377 534.328 199.439 c h
534.328 199.439 m f*
0.467983 w
1 j
q -1 -0.573465 -0.573465 1 0 390.935364 cm
-319.455 -374.692 m -327.636 -377.701 l -319.458 -380.71 l -320.763 -378.931
 -320.757 -376.502 -319.455 -374.692 c h
-319.455 -374.692 m S Q
414.406 126.935 m 410.473 124.65 l f*
2.877195 w
0 j
q 1 0 0 -1 0 390.935364 cm
414.406 264 m 410.473 266.285 l S Q
417.012 124.424 m 407.113 122.681 l 413.523 130.42 l 413.25 127.892 414.668
 125.474 417.012 124.424 c h
417.012 124.424 m f*
0.466407 w
1 j
q 1 0.58126 0.58126 -1 0 390.935364 cm
195.909 380.386 m 187.753 377.387 l 195.906 374.388 l 194.604 376.159 194.613
 378.582 195.909 380.386 c h
195.909 380.386 m S Q
560.973 110.607 m 389.434 210.537 l f*
0.826493 w
0 j
q 1 0 0 -1 0 390.935364 cm
560.973 280.328 m 389.434 180.398 l S Q
413.789 196.377 m 409.852 198.666 l f*
2.877195 w
q 1 0 0 -1 0 390.935364 cm
413.789 194.559 m 409.852 192.27 l S Q
412.895 192.873 m 406.484 200.611 l 416.379 198.869 l 414.047 197.857 412.648
 195.431 412.895 192.873 c h
412.895 192.873 m f*
0.466409 w
1 j
q 1 -0.581246 -0.581246 -1 0 390.935364 cm
394.677 -31.342 m 386.524 -34.341 l 394.676 -37.338 l 393.373 -35.568 393.382
 -33.148 394.677 -31.342 c h
394.677 -31.342 m S Q
535.645 125.271 m 539.594 123.006 l f*
2.877195 w
0 j
q 1 0 0 -1 0 390.935364 cm
535.645 265.664 m 539.594 267.93 l S Q
536.52 128.779 m 542.977 121.08 l 533.07 122.763 l 535.395 123.791 536.781
 126.224 536.52 128.779 c h
536.52 128.779 m f*
0.467983 w
1 j
q -1 0.573465 0.573465 1 0 390.935364 cm
-516.876 34.254 m -525.058 31.247 l -516.876 28.239 l -518.182 30.015 -518.175
 32.445 -516.876 34.254 c h
-516.876 34.254 m S Q
424.84 75.263 m 523.613 244.49 l f*
0.826493 w
0 j
q 1 0 0 -1 0 390.935364 cm
424.84 315.672 m 523.613 146.445 l S Q
439.5 100.592 m 437.238 96.638 l f*
2.877195 w
q 1 0 0 -1 0 390.935364 cm
439.5 290.344 m 437.238 294.297 l S Q
443.012 99.713 m 435.312 93.26 l 436.996 103.166 l 438.023 100.838 440.457
 99.451 443.012 99.713 c h
443.012 99.713 m f*
0.467984 w
1 j
q 0.573461 1 1 -0.573461 0 390.935364 cm
-27.974 459.053 m -36.152 456.044 l -27.971 453.036 l -29.28 454.814 -29.273
 457.244 -27.974 459.053 c h
-27.974 459.053 m S Q
1 0.501961 0.501961 rg
523.668 161.017 m 523.668 134.81 501.918 113.568 475.09 113.568 c 448.258
 113.568 426.508 134.81 426.508 161.017 c 426.508 187.224 448.258 208.467
 475.09 208.467 c 501.918 208.467 523.668 187.224 523.668 161.017 c h
523.668 161.017 m f
0.172549 g
1.929846 w
2 J
q 1 0 0 -1 0 390.935364 cm
523.668 229.918 m 523.668 256.125 501.918 277.367 475.09 277.367 c 448.258
 277.367 426.508 256.125 426.508 229.918 c 426.508 203.711 448.258 182.469
 475.09 182.469 c 501.918 182.469 523.668 203.711 523.668 229.918 c h
523.668 229.918 m S Q
0 g
1.986059 w
0 J
0 j
q 1 0 0 -1 0 390.935364 cm
475.059 227.703 m 513.215 251.871 l S Q
511.199 140.342 m 508.461 139.724 l 515.395 137.685 l 510.586 143.08 l 
h
511.199 140.342 m f*
0.419466 w
q -1 0.633329 0.633329 1 0 390.935364 cm
-478.128 52.218 m -476.452 50.54 l -482.323 52.219 l -476.452 53.895 l 
h
-478.128 52.218 m S Q
2.095974 w
q 1 0 0 -1 0 390.935364 cm
475.844 228.16 m 522.285 148.371 l S Q
521.02 240.392 m 521.777 237.525 l 523.656 244.92 l 518.152 239.635 l h
521.02 240.392 m f*
0.452877 w
q -0.581999 -1 -1 0.581999 0 390.935364 cm
-114.056 -454.639 m -112.244 -456.451 l -118.585 -454.64 l -112.244 -452.826
 l h
-114.056 -454.639 m S Q
482.848 143.857 m 483.008 143.896 l 483.164 143.935 l 483.328 143.982 l
 483.484 144.033 l 483.645 144.084 l 483.965 144.209 l 484.125 144.275 l
 484.281 144.349 l 484.434 144.424 l 484.59 144.506 l 484.738 144.588 l 
484.887 144.678 l 485.027 144.771 l 485.168 144.869 l 485.301 144.967 l 
485.43 145.072 l 485.555 145.178 l 485.672 145.291 l 485.785 145.408 l 485.891
 145.525 l 485.988 145.646 l 486.082 145.775 l 486.164 145.904 l 486.238
 146.037 l 486.305 146.174 l 486.359 146.314 l 486.41 146.455 l 486.445 
146.603 l 486.477 146.752 l 486.492 146.904 l 486.496 147.06 l 486.496 148.486
 485.004 149.545 482.832 149.545 c 478.105 149.545 l 477.773 149.545 477.621
 149.545 477.621 149.217 c 477.621 149.033 477.773 149.033 478.09 149.033
 c 478.121 149.033 478.434 149.033 478.719 149.002 c 479.016 148.967 479.164
 148.951 479.164 148.732 c 479.164 148.666 479.152 148.619 479.098 148.42
 c 476.875 139.513 l 476.711 138.865 476.676 138.728 475.367 138.728 c 475.066
 138.728 474.918 138.728 474.918 138.4 c 474.918 138.217 475.117 138.217
 475.152 138.217 c 479.348 138.217 l 479.48 138.217 479.68 138.217 479.68
 138.549 c 479.68 138.728 479.531 138.728 479.219 138.728 c 478.602 138.728
 478.137 138.728 478.137 139.029 c 478.137 139.131 478.168 139.213 478.188
 139.314 c 479.281 143.709 l 481.254 143.709 l 481.238 144.076 l 479.379
 144.076 l 480.461 148.404 l 480.559 148.803 480.609 148.967 480.922 149.017
 c 481.07 149.033 481.605 149.033 481.934 149.033 c 483.113 149.033 484.953
 149.033 484.953 147.392 c 484.953 146.826 484.688 145.681 484.043 145.033
 c 483.609 144.603 482.73 144.076 481.238 144.076 c 481.254 143.709 l 482.766
 143.709 483.062 142.779 483.062 142.201 c 483.062 141.951 482.93 141.435
 482.832 141.056 c 482.715 140.588 482.566 139.974 482.566 139.646 c 482.566
 137.849 484.555 137.849 484.773 137.849 c 486.184 137.849 486.762 139.525
 486.762 139.76 c 486.762 139.959 486.578 139.959 486.562 139.959 c 486.414
 139.959 486.379 139.842 486.348 139.724 c 485.934 138.502 485.223 138.217
 484.84 138.217 c 484.293 138.217 484.176 138.584 484.176 139.228 c 484.176
 139.744 484.277 140.588 484.344 141.123 c 484.375 141.349 484.41 141.666
 484.41 141.9 c 484.41 143.178 483.297 143.693 482.848 143.857 c h
482.848 143.857 m f*
491.457 140.322 m 491.438 140.357 l 491.41 140.392 l 491.363 140.463 l 
491.336 140.494 l 491.309 140.529 l 491.277 140.56 l 491.25 140.592 l 491.219
 140.623 l 491.156 140.678 l 491.121 140.709 l 491.09 140.736 l 491.051 
140.76 l 491.016 140.787 l 490.98 140.806 l 490.902 140.853 l 490.824 140.892
 l 490.738 140.924 l 490.695 140.943 l 490.652 140.955 l 490.559 140.978
 l 490.418 141.002 l 490.316 141.01 l 490.262 141.01 l 490.262 140.681 l
 491.074 140.681 491.297 139.799 491.297 139.674 c 491.297 139.627 491.277
 139.545 491.262 139.51 c 490.715 137.338 l 490.637 137.013 490.379 136.779
 490.125 136.56 c 490.02 136.467 489.559 136.096 489.059 136.096 c 488.629
 136.096 488.207 136.4 488.207 137.221 c 488.207 137.838 488.543 139.115
 488.816 139.58 c 489.348 140.51 489.941 140.681 490.262 140.681 c 490.262
 141.01 l 488.777 141.01 487.27 139.369 487.27 137.697 c 487.27 136.572 
488.023 135.771 489.02 135.771 c 489.648 135.771 490.207 136.131 490.668
 136.584 c 490.891 135.885 491.566 135.771 491.863 135.771 c 492.285 135.771
 492.574 136.025 492.785 136.385 c 493.039 136.838 493.191 137.502 493.191
 137.545 c 493.191 137.697 493.039 137.697 493.004 137.697 c 492.84 137.697
 492.832 137.65 492.75 137.338 c 492.609 136.779 492.387 136.096 491.902
 136.096 c 491.598 136.096 491.52 136.349 491.52 136.666 c 491.52 136.861
 491.613 137.279 491.691 137.58 c 491.773 137.896 491.887 138.369 491.949
 138.627 c 492.18 139.51 l 492.25 139.814 492.387 140.357 492.387 140.416
 c 492.387 140.674 492.18 140.787 491.996 140.787 c 491.797 140.787 491.531
 140.65 491.457 140.322 c h
491.457 140.322 m f*
499.086 228.799 m 499.242 228.834 l 499.395 228.873 l 499.715 228.967 l
 499.871 229.021 l 500.027 229.08 l 500.184 229.142 l 500.34 229.209 l 500.496
 229.279 l 500.645 229.353 l 500.797 229.431 l 500.945 229.513 l 501.227
 229.693 l 501.367 229.791 l 501.496 229.888 l 501.625 229.99 l 501.746 
230.096 l 501.859 230.205 l 501.973 230.318 l 502.074 230.435 l 502.172 
230.556 l 502.262 230.678 l 502.344 230.806 l 502.414 230.939 l 502.48 231.072
 l 502.535 231.209 l 502.586 231.349 l 502.621 231.494 l 502.652 231.642
 l 502.668 231.787 l 502.672 231.943 l 502.672 233.346 501.207 234.385 499.07
 234.385 c 494.426 234.385 l 494.098 234.385 493.953 234.385 493.953 234.06
 c 493.953 233.881 494.098 233.881 494.41 233.881 c 494.441 233.881 494.75
 233.881 495.027 233.849 c 495.324 233.818 495.465 233.799 495.465 233.588
 c 495.465 233.521 495.453 233.474 495.402 233.279 c 493.219 224.529 l 493.055
 223.888 493.023 223.76 491.738 223.76 c 491.441 223.76 491.297 223.76 491.297
 223.435 c 491.297 223.256 491.492 223.256 491.523 223.256 c 495.648 223.256
 l 495.777 223.256 495.973 223.256 495.973 223.584 c 495.973 223.76 495.828
 223.76 495.52 223.76 c 494.914 223.76 494.457 223.76 494.457 224.053 c 
494.457 224.15 494.488 224.232 494.508 224.334 c 495.582 228.65 l 497.52
 228.65 l 497.504 229.01 l 495.68 229.01 l 496.738 233.263 l 496.836 233.654
 496.887 233.818 497.195 233.865 c 497.34 233.881 497.863 233.881 498.188
 233.881 c 499.348 233.881 501.156 233.881 501.156 232.267 c 501.156 231.713
 500.895 230.588 500.258 229.951 c 499.836 229.529 498.969 229.01 497.504
 229.01 c 497.52 228.65 l 499.008 228.65 499.297 227.736 499.297 227.17 
c 499.297 226.924 499.168 226.416 499.07 226.045 c 498.953 225.584 498.809
 224.982 498.809 224.658 c 498.809 222.896 500.762 222.896 500.977 222.896
 c 502.363 222.896 502.934 224.541 502.934 224.771 c 502.934 224.967 502.754
 224.967 502.738 224.967 c 502.59 224.967 502.555 224.853 502.523 224.736
 c 502.117 223.533 501.418 223.256 501.043 223.256 c 500.504 223.256 500.391
 223.615 500.391 224.252 c 500.391 224.756 500.488 225.584 500.555 226.107
 c 500.586 226.334 500.621 226.646 500.621 226.873 c 500.621 228.127 499.527
 228.635 499.086 228.799 c h
499.086 228.799 m f*
505.746 228.541 m 505.746 228.545 l 505.75 228.549 l 505.75 228.553 l 505.754
 228.56 l 505.754 228.564 l 505.758 228.572 l 505.758 228.592 l 505.762 
228.599 l 505.766 228.603 l 505.766 228.611 l 505.773 228.635 l 505.777 
228.65 l 505.777 228.674 l 505.781 228.681 l 505.781 228.685 l 505.785 228.693
 l 505.785 228.705 l 505.789 228.705 l 505.789 228.724 l 505.789 228.783
 505.746 228.885 505.609 228.885 c 505.379 228.885 504.434 228.791 504.148
 228.767 c 504.055 228.76 503.898 228.744 503.898 228.506 c 503.898 228.346
 504.055 228.346 504.191 228.346 c 504.742 228.346 504.742 228.267 504.742
 228.178 c 504.742 228.096 504.629 227.638 504.559 227.377 c 504.297 226.326
 l 504.191 225.939 503.566 223.443 503.543 223.291 c 503.484 223.021 503.484
 222.869 503.484 222.736 c 503.484 221.58 504.215 220.849 505.164 220.849
 c 505.176 221.17 l 504.613 221.17 504.297 221.662 504.297 222.334 c 504.297
 222.756 504.398 223.142 504.719 224.431 c 504.789 224.65 504.789 224.674
 505.004 224.924 c 505.438 225.424 505.949 225.678 506.363 225.678 c 506.805
 225.678 507.191 225.346 507.191 224.572 c 507.191 224.103 506.945 222.939
 506.602 222.279 c 506.324 221.717 505.758 221.17 505.176 221.17 c 505.164
 220.849 l 506.59 220.849 508.105 222.4 508.105 224.092 c 508.105 225.424
 507.184 225.998 506.395 225.998 c 505.801 225.998 505.297 225.666 504.957
 225.369 c h
505.746 228.541 m f*
240.301 390.935 m 235.656 390.627 l 235.656 389.767 l 237.914 389.767 238.172
 389.572 238.172 388.209 c 238.172 373.732 l 238.172 372.474 237.848 372.474
 235.656 372.474 c 235.656 371.615 l 242.82 371.615 l 242.82 372.474 l 240.688
 372.474 240.301 372.474 240.301 373.732 c h
240.301 390.935 m f*
249.336 383.92 m 244.82 383.615 l 244.82 382.752 l 246.949 382.752 247.207
 382.58 247.207 381.217 c 247.207 373.732 l 247.207 372.474 246.883 372.474
 244.691 372.474 c 244.691 371.615 l 251.598 371.615 l 251.598 372.474 l
 249.465 372.474 249.336 372.615 249.336 373.701 c h
249.336 383.92 m f*
249.465 388.76 m 249.465 389.08 l 249.402 389.158 l 249.402 389.303 l 249.336
 389.369 l 249.273 389.439 l 249.273 389.498 l 249.207 389.56 l 249.207 
389.623 l 249.145 389.678 l 249.078 389.732 l 249.016 389.783 l 248.949 
389.834 l 248.887 389.885 l 248.82 389.924 l 248.758 389.967 l 248.691 390.006
 l 248.629 390.041 l 248.562 390.076 l 248.5 390.107 l 248.434 390.135 l
 248.367 390.158 l 248.238 390.181 l 248.176 390.197 l 248.109 390.213 l
 248.047 390.224 l 247.918 390.232 l 247.852 390.236 l 247.789 390.236 l
 246.754 390.236 246.047 389.486 246.047 388.76 c 246.047 388.013 246.754
 387.287 247.789 387.287 c 248.691 387.287 249.465 387.873 249.465 388.76
 c h
249.465 388.76 m f*
256.242 381.193 m 256.242 373.732 l 256.242 372.474 255.855 372.474 253.727
 372.474 c 253.727 371.615 l 260.953 371.615 l 260.953 372.474 l 258.824
 372.474 258.438 372.474 258.438 373.732 c 258.438 378.853 l 258.438 381.748
 260.695 383.306 262.762 383.306 c 264.824 383.306 265.148 381.803 265.148
 380.217 c 265.148 373.732 l 265.148 372.474 264.824 372.474 262.633 372.474
 c 262.633 371.615 l 269.926 371.615 l 269.926 372.474 l 268.246 372.474
 267.406 372.474 267.406 373.314 c 267.406 378.627 l 267.406 381.025 267.406
 381.888 266.375 382.892 c 265.922 383.361 264.891 383.92 263.02 383.92 
c 260.695 383.92 259.148 382.724 258.242 380.998 c 258.242 383.92 l 253.727
 383.615 l 253.727 382.752 l 255.984 382.752 256.242 382.556 256.242 381.193
 c h
256.242 381.193 m f*
273.668 373.732 m 273.668 373.408 l 273.602 373.314 l 273.602 373.072 l
 273.539 373.006 l 273.539 372.885 l 273.473 372.834 l 273.41 372.783 l 
273.41 372.736 l 273.344 372.697 l 273.281 372.666 l 273.215 372.631 l 273.152
 372.603 l 273.086 372.58 l 272.957 372.56 l 272.895 372.541 l 272.766 372.525
 l 272.699 372.513 l 272.57 372.502 l 272.504 372.502 l 272.441 372.498 
l 272.375 372.494 l 272.312 372.494 l 272.246 372.486 l 272.184 372.486 
l 272.117 372.482 l 271.797 372.482 l 271.73 372.474 l 271.152 372.474 l
 271.152 371.615 l 278.379 371.615 l 278.379 372.474 l 276.25 372.474 275.863
 372.474 275.863 373.732 c 275.863 378.853 l 275.863 381.748 278.121 383.306
 280.188 383.306 c 282.25 383.306 282.574 381.803 282.574 380.217 c 282.574
 373.732 l 282.574 372.474 282.25 372.474 280.055 372.474 c 280.055 371.615
 l 287.348 371.615 l 287.348 372.474 l 285.672 372.474 284.832 372.474 284.832
 373.314 c 284.832 378.627 l 284.832 381.025 284.832 381.888 283.801 382.892
 c 283.348 383.361 282.316 383.92 280.445 383.92 c 277.734 383.92 276.312
 382.252 275.797 381.193 c 275.797 390.935 l 271.152 390.627 l 271.152 389.767
 l 273.41 389.767 273.668 389.572 273.668 388.209 c h
273.668 373.732 m f*
298.902 373.732 m 298.902 373.521 l 298.965 373.416 l 298.965 373.314 l
 299.031 373.209 l 299.031 373.107 l 299.094 373.006 l 299.16 372.904 l 
299.16 372.806 l 299.223 372.705 l 299.289 372.611 l 299.352 372.521 l 299.418
 372.424 l 299.48 372.342 l 299.547 372.252 l 299.609 372.174 l 299.742 
372.088 l 299.805 372.017 l 299.871 371.943 l 300 371.877 l 300.062 371.81
 l 300.191 371.756 l 300.258 371.697 l 300.387 371.646 l 300.516 371.603
 l 300.645 371.564 l 300.707 371.525 l 300.836 371.498 l 300.965 371.474
 l 301.094 371.459 l 301.289 371.451 l 301.418 371.447 l 302.062 371.447
 304.062 371.838 304.062 374.092 c 304.062 375.65 l 303.227 375.65 l 303.227
 374.092 l 303.227 372.474 302.449 372.314 302.062 372.314 c 301.031 372.314
 300.902 373.564 300.902 373.701 c 300.902 379.271 l 300.902 380.439 300.902
 381.525 299.742 382.556 c 298.449 383.642 296.836 384.088 295.352 384.088
 c 292.707 384.088 290.445 382.783 290.445 380.943 c 290.445 380.103 291.094
 379.635 291.93 379.635 c 292.836 379.635 293.414 380.189 293.414 380.916
 c 293.414 381.244 293.285 382.166 291.801 382.193 c 292.641 383.166 294.254
 383.474 295.289 383.474 c 296.836 383.474 298.645 382.388 298.645 379.908
 c 298.645 375.51 l 298.645 372.865 296.383 371.924 294.898 371.924 c 293.352
 371.924 291.996 372.896 291.996 374.287 c 291.996 375.818 293.352 378.131
 298.645 378.299 c 298.645 378.881 l 297.031 378.795 294.77 378.713 292.77
 377.881 c 290.316 376.935 289.543 375.486 289.543 374.26 c 289.543 372.006
 292.641 371.306 294.707 371.306 c 296.773 371.306 298.258 372.424 298.902
 373.732 c h
298.902 373.732 m f*
311.035 377.013 m 311.098 377.002 l 311.164 376.99 l 311.227 376.974 l 
311.355 376.959 l 311.484 376.935 l 311.551 376.908 l 311.68 376.881 l 311.938
 376.818 l 312.066 376.779 l 312.262 376.732 l 312.391 376.685 l 312.52 
376.635 l 312.648 376.576 l 312.777 376.51 l 312.969 376.443 l 313.098 376.369
 l 313.23 376.291 l 313.359 376.209 l 313.488 376.119 l 313.617 376.017 
l 313.746 375.912 l 313.809 375.803 l 313.938 375.681 l 314.004 375.56 l
 314.066 375.494 l 314.133 375.428 l 314.133 375.353 l 314.195 375.287 l
 314.195 375.213 l 314.262 375.135 l 314.262 374.978 l 314.324 374.896 l
 314.324 374.455 l 314.324 373.033 313.23 371.924 310.711 371.924 c 308 
371.924 306.84 373.51 306.258 375.873 c 306.129 376.236 306.129 376.349 
305.809 376.349 c 305.355 376.349 305.355 376.154 305.355 375.65 c 305.355
 371.978 l 305.355 371.502 305.355 371.306 305.742 371.306 c 305.871 371.306
 305.938 371.334 306.516 371.865 c 306.582 371.924 306.582 371.978 307.164
 372.502 c 308.582 371.334 310.066 371.306 310.711 371.306 c 314.391 371.306
 315.875 373.174 315.875 375.181 c 315.875 376.654 314.906 377.49 314.52
 377.822 c 313.488 378.713 312.195 378.935 310.906 379.158 c 309.098 379.467
 306.902 379.83 306.902 381.447 c 306.902 382.42 307.742 383.556 310.52 
383.556 c 314.066 383.556 314.195 381.053 314.262 380.189 c 314.324 379.935
 314.582 379.935 314.648 379.935 c 315.102 379.935 315.102 380.076 315.102
 380.607 c 315.102 383.42 l 315.102 383.892 315.102 384.088 314.715 384.088
 c 314.582 384.088 314.52 384.088 314.066 383.752 c 314.004 383.642 313.68
 383.388 313.551 383.306 c 312.324 384.088 311.035 384.088 310.52 384.088
 c 306.582 384.088 305.355 382.221 305.355 380.662 c 305.355 379.689 305.871
 378.908 306.773 378.299 c 307.809 377.572 308.711 377.404 311.035 377.013
 c h
311.035 377.013 m f*
339.754 373.146 m 339.754 371.306 l 344.465 371.615 l 344.465 372.474 l
 342.27 372.474 342.012 372.67 342.012 374.033 c 342.012 390.935 l 337.367
 390.627 l 337.367 389.767 l 339.625 389.767 339.883 389.572 339.883 388.209
 c 339.883 382.193 l 338.914 383.193 337.559 383.92 335.816 383.92 c 335.945
 383.306 l 337.105 383.306 338.398 382.892 339.43 381.635 c 339.754 381.166
 339.754 381.103 339.754 380.607 c 339.754 374.9 l 339.754 374.396 339.754
 374.342 339.43 373.873 c 338.461 372.533 336.977 371.924 335.621 371.924
 c 334.203 371.924 333.043 372.642 332.266 373.701 c 331.43 374.846 331.301
 376.431 331.301 377.572 c 331.301 378.599 331.363 380.271 332.332 381.525
 c 332.977 382.388 334.203 383.306 335.945 383.306 c 335.816 383.92 l 332.008
 383.92 328.652 381.193 328.652 377.599 c 328.652 374.064 331.816 371.306
 335.43 371.306 c 337.496 371.306 338.98 372.252 339.754 373.146 c h
339.754 373.146 m f*
349.176 378.049 m 349.238 378.627 l 349.434 382.783 352.145 383.474 353.242
 383.474 c 356.531 383.474 356.855 379.717 356.855 378.627 c 349.238 378.627
 l 349.176 378.049 l 358.145 378.049 l 358.855 378.049 358.984 378.049 358.984
 378.627 c 358.984 381.385 357.242 384.088 353.242 384.088 c 349.5 384.088
 346.531 381.217 346.531 377.74 c 346.531 374.013 349.887 371.306 353.629
 371.306 c 357.5 371.306 358.984 374.396 358.984 374.928 c 358.984 375.209
 358.727 375.263 358.535 375.263 c 358.277 375.263 358.211 375.096 358.145
 374.873 c 356.984 372.006 354.145 372.006 353.824 372.006 c 352.207 372.006
 350.918 372.838 350.145 373.873 c 349.176 375.209 349.176 377.041 349.176
 378.049 c h
349.176 378.049 m f*
244.176 344.15 m 244.176 344.564 l 244.238 344.767 l 244.238 345.342 l 
244.305 345.521 l 244.305 345.697 l 244.367 345.873 l 244.367 346.041 l 
244.434 346.201 l 244.434 346.365 l 244.562 346.666 l 244.625 346.955 l 
244.754 347.228 l 244.883 347.486 l 245.012 347.728 l 245.141 347.951 l 
245.27 348.158 l 245.398 348.353 l 245.594 348.537 l 245.723 348.705 l 245.918
 348.861 l 246.047 349.002 l 246.238 349.131 l 246.434 349.248 l 246.562
 349.353 l 246.754 349.447 l 246.949 349.533 l 247.145 349.607 l 247.336
 349.666 l 247.465 349.717 l 247.66 349.763 l 247.852 349.795 l 248.047 
349.822 l 248.176 349.842 l 248.367 349.853 l 248.562 349.857 l 248.82 349.857
 250.82 349.83 251.984 348.83 c 250.629 348.744 250.434 347.912 250.434 
347.549 c 250.434 346.822 251.016 346.263 251.918 346.263 c 252.758 346.263
 253.402 346.74 253.402 347.572 c 253.402 349.471 250.949 350.556 248.5 
350.556 c 244.496 350.556 241.527 347.549 241.527 344.096 c 241.527 340.529
 244.691 337.775 248.434 337.775 c 252.758 337.775 253.789 341.115 253.789
 341.396 c 253.789 341.674 253.469 341.674 253.34 341.674 c 253.082 341.674
 253.016 341.564 252.949 341.396 c 251.984 338.806 249.918 338.471 248.691
 338.471 c 247.016 338.471 244.176 339.67 244.176 344.15 c h
244.176 344.15 m f*
269.797 344.041 m 269.73 344.369 l 269.73 344.697 l 269.668 345.021 l 269.602
 345.342 l 269.535 345.654 l 269.473 345.963 l 269.344 346.263 l 269.215
 346.56 l 269.086 346.849 l 268.891 347.131 l 268.762 347.404 l 268.57 347.666
 l 268.375 347.924 l 268.117 348.17 l 267.922 348.404 l 267.664 348.635 
l 267.406 348.849 l 267.148 349.053 l 266.891 349.248 l 266.633 349.431 
l 266.309 349.599 l 266.051 349.763 l 265.73 349.908 l 265.406 350.037 l
 265.086 350.154 l 264.762 350.26 l 264.438 350.349 l 264.117 350.42 l 263.73
 350.478 l 263.406 350.521 l 263.02 350.545 l 262.633 350.556 l 262.633 
349.939 l 264.051 349.939 265.406 349.326 266.246 348.131 c 267.086 346.935
 267.086 345.318 267.086 344.263 c 267.086 343.263 267.086 341.752 266.375
 340.529 c 265.664 339.279 264.246 338.471 262.633 338.471 c 261.277 338.471
 259.855 339.053 259.016 340.338 c 258.18 341.564 258.18 343.263 258.18 
344.263 c 258.18 345.346 258.18 346.849 258.953 348.076 c 259.855 349.361
 261.34 349.939 262.633 349.939 c 262.633 350.556 l 258.629 350.556 255.531
 347.521 255.531 344.041 c 255.531 340.447 258.887 337.775 262.633 337.775
 c 266.504 337.775 269.797 340.502 269.797 344.041 c h
269.797 344.041 m f*
276.121 347.326 m 276.121 350.388 l 271.668 350.08 l 271.668 349.221 l 
273.926 349.221 274.184 349.025 274.184 347.662 c 274.184 340.201 l 274.184
 338.943 273.797 338.943 271.668 338.943 c 271.668 338.08 l 279.41 338.08
 l 279.41 338.943 l 278.766 338.943 l 276.379 338.943 276.312 339.248 276.312
 340.256 c 276.312 344.537 l 276.312 347.299 277.668 349.771 280.055 349.771
 c 280.316 349.771 280.379 349.771 280.445 349.744 c 280.316 349.717 279.668
 349.381 279.668 348.662 c 279.668 347.885 280.379 347.467 281.09 347.467
 c 281.672 347.467 282.445 347.795 282.445 348.689 c 282.445 349.576 281.477
 350.388 280.055 350.388 c 277.734 350.388 276.57 348.521 276.121 347.326
 c h
276.121 347.326 m f*
289.027 347.326 m 289.027 350.388 l 284.574 350.08 l 284.574 349.221 l 
286.832 349.221 287.09 349.025 287.09 347.662 c 287.09 340.201 l 287.09 
338.943 286.703 338.943 284.574 338.943 c 284.574 338.08 l 292.32 338.08
 l 292.32 338.943 l 291.672 338.943 l 289.285 338.943 289.223 339.248 289.223
 340.256 c 289.223 344.537 l 289.223 347.299 290.574 349.771 292.965 349.771
 c 293.223 349.771 293.285 349.771 293.352 349.744 c 293.223 349.717 292.578
 349.381 292.578 348.662 c 292.578 347.885 293.285 347.467 293.996 347.467
 c 294.578 347.467 295.352 347.795 295.352 348.689 c 295.352 349.576 294.383
 350.388 292.965 350.388 c 290.641 350.388 289.48 348.521 289.027 347.326
 c h
289.027 347.326 m f*
299.48 344.513 m 299.547 345.096 l 299.742 349.248 302.449 349.939 303.547
 349.939 c 306.84 349.939 307.164 346.185 307.164 345.096 c 299.547 345.096
 l 299.48 344.513 l 308.453 344.513 l 309.164 344.513 309.293 344.513 309.293
 345.096 c 309.293 347.849 307.551 350.556 303.547 350.556 c 299.805 350.556
 296.836 347.681 296.836 344.205 c 296.836 340.478 300.191 337.775 303.934
 337.775 c 307.809 337.775 309.293 340.865 309.293 341.396 c 309.293 341.674
 309.035 341.732 308.84 341.732 c 308.582 341.732 308.516 341.564 308.453
 341.338 c 307.293 338.471 304.453 338.471 304.129 338.471 c 302.516 338.471
 301.227 339.306 300.449 340.338 c 299.48 341.674 299.48 343.51 299.48 344.513
 c h
299.48 344.513 m f*
313.68 347.662 m 313.68 340.201 l 313.68 338.943 313.293 338.943 311.164
 338.943 c 311.164 338.08 l 318.391 338.08 l 318.391 338.943 l 316.262 338.943
 315.875 338.943 315.875 340.201 c 315.875 345.318 l 315.875 348.213 318.133
 349.771 320.199 349.771 c 322.266 349.771 322.586 348.271 322.586 346.681
 c 322.586 340.201 l 322.586 338.943 322.266 338.943 320.07 338.943 c 320.07
 338.08 l 327.363 338.08 l 327.363 338.943 l 325.684 338.943 324.844 338.943
 324.844 339.779 c 324.844 345.096 l 324.844 347.494 324.844 348.353 323.812
 349.361 c 323.359 349.83 322.328 350.388 320.457 350.388 c 318.133 350.388
 316.586 349.193 315.68 347.467 c 315.68 350.388 l 311.164 350.08 l 311.164
 349.221 l 313.422 349.221 313.68 349.025 313.68 347.662 c h
313.68 347.662 m f*
333.105 349.221 m 337.688 349.221 l 337.688 350.08 l 333.105 350.08 l 333.105
 355.205 l 332.332 355.205 l 332.266 352.92 331.301 349.939 328.137 349.83
 c 328.137 349.221 l 330.91 349.221 l 330.91 341.537 l 330.91 338.107 333.879
 337.775 335.043 337.775 c 337.301 337.775 338.203 339.752 338.203 341.537
 c 338.203 343.123 l 337.43 343.123 l 337.43 341.592 l 337.43 339.529 336.461
 338.471 335.301 338.471 c 333.105 338.471 333.105 341.006 333.105 341.478
 c h
333.105 349.221 m f*
343.367 344.513 m 343.434 345.096 l 343.625 349.248 346.336 349.939 347.434
 349.939 c 350.723 349.939 351.047 346.185 351.047 345.096 c 343.434 345.096
 l 343.367 344.513 l 352.34 344.513 l 353.047 344.513 353.176 344.513 353.176
 345.096 c 353.176 347.849 351.434 350.556 347.434 350.556 c 343.691 350.556
 340.723 347.681 340.723 344.205 c 340.723 340.478 344.078 337.775 347.82
 337.775 c 351.691 337.775 353.176 340.865 353.176 341.396 c 353.176 341.674
 352.918 341.732 352.727 341.732 c 352.469 341.732 352.402 341.564 352.34
 341.338 c 351.176 338.471 348.336 338.471 348.016 338.471 c 346.402 338.471
 345.109 339.306 344.336 340.338 c 343.367 341.674 343.367 343.51 343.367
 344.513 c h
343.367 344.513 m f*
0.761429 w
q 1 0 0 -1 0 390.935364 cm
354.195 31.938 m 466.367 138.648 l S Q
q 1 0 0 -1 0 390.935364 cm
239.23 31.938 m 108.352 78.586 l S Q
1.872455 w
q 1 0 0 -1 0 390.935364 cm
206.352 360.016 m 237.367 360.016 l S Q
1.887257 w
q 1 0 0 -1 0 390.935364 cm
205.859 101.051 m 237.367 101.051 l S Q
1.603646 w
q 1 0 0 -1 0 390.935364 cm
220.961 356.754 m 220.934 104.289 l S Q
220.961 36.103 m 219.355 37.709 l 220.961 32.096 l 222.562 37.709 l h
220.961 36.103 m f*
0.400911 w
q -0.000113125 1 1 0.000113125 0 390.935364 cm
-354.857 220.921 m -353.251 219.316 l -358.865 220.92 l -353.252 222.523
 l h
-354.857 220.921 m S Q
220.934 284.721 m 222.535 283.119 l 220.934 288.728 l 219.328 283.119 l
 h
220.934 284.721 m f*
q 0.000113125 -1 -1 -0.000113125 0 390.935364 cm
106.24 -220.922 m 107.842 -222.523 l 102.232 -220.922 l 107.841 -219.316
 l h
106.24 -220.922 m S Q
1 g
212.559 172.607 15.551 -21.461 re f
0 g
221.168 168.763 m 221.188 168.842 l 221.207 168.924 l 221.246 169.072 l
 221.273 169.142 l 221.293 169.209 l 221.32 169.267 l 221.348 169.33 l 221.375
 169.385 l 221.445 169.486 l 221.484 169.537 l 221.531 169.576 l 221.582
 169.615 l 221.637 169.658 l 221.699 169.693 l 221.77 169.724 l 221.84 169.752
 l 221.922 169.783 l 222.012 169.81 l 222.059 169.818 l 222.109 169.83 l
 222.16 169.846 l 222.27 169.861 l 222.332 169.869 l 222.391 169.881 l 222.453
 169.885 l 222.516 169.896 l 222.59 169.9 l 222.73 169.908 l 222.805 169.916
 l 222.969 169.924 l 223.055 169.931 l 223.141 169.935 l 223.23 169.935 
l 223.32 169.939 l 223.52 169.939 l 223.621 169.947 l 223.836 169.947 l 
224.598 169.947 224.793 169.947 224.793 170.428 c 224.793 170.724 224.516
 170.724 224.395 170.724 c 217.312 170.724 l 217.137 170.724 216.832 170.724
 216.832 170.224 c 216.832 169.947 217.059 169.947 217.539 169.947 c 217.59
 169.947 218.066 169.947 218.496 169.896 c 218.953 169.846 219.18 169.818
 219.18 169.49 c 219.18 169.388 219.148 169.314 219.078 169.013 c 215.699
 155.486 l 215.445 154.498 215.395 154.295 213.41 154.295 c 212.977 154.295
 212.727 154.295 212.727 153.795 c 212.727 153.517 212.953 153.517 213.41
 153.517 c 225.07 153.517 l 225.68 153.517 225.703 153.517 225.852 153.947
 c 227.844 159.388 l 227.945 159.67 227.945 159.713 227.945 159.74 c 227.945
 159.842 227.867 160.017 227.641 160.017 c 227.414 160.017 227.387 159.892
 227.215 159.486 c 226.355 157.17 225.25 154.295 220.891 154.295 c 218.523
 154.295 l 218.168 154.295 218.117 154.295 217.965 154.322 c 217.711 154.346
 217.641 154.377 217.641 154.576 c 217.641 154.65 217.641 154.701 217.77
 155.158 c h
221.168 168.763 m f*
Q Q
showpage
%%Trailer
end restore
%%EOF
