%!PS-Adobe-3.0 EPSF-3.0
%%Creator: cairo 1.14.6 (http://cairographics.org)
%%CreationDate: Sat Nov 11 16:28:47 2017
%%Pages: 1
%%DocumentData: Clean7Bit
%%LanguageLevel: 2
%%BoundingBox: 0 -1 590 201
%%EndComments
%%BeginProlog
save
50 dict begin
/q { gsave } bind def
/Q { grestore } bind def
/cm { 6 array astore concat } bind def
/w { setlinewidth } bind def
/J { setlinecap } bind def
/j { setlinejoin } bind def
/M { setmiterlimit } bind def
/d { setdash } bind def
/m { moveto } bind def
/l { lineto } bind def
/c { curveto } bind def
/h { closepath } bind def
/re { exch dup neg 3 1 roll 5 3 roll moveto 0 rlineto
      0 exch rlineto 0 rlineto closepath } bind def
/S { stroke } bind def
/f { fill } bind def
/f* { eofill } bind def
/n { newpath } bind def
/W { clip } bind def
/W* { eoclip } bind def
/BT { } bind def
/ET { } bind def
/pdfmark where { pop globaldict /?pdfmark /exec load put }
    { globaldict begin /?pdfmark /pop load def /pdfmark
    /cleartomark load def end } ifelse
/BDC { mark 3 1 roll /BDC pdfmark } bind def
/EMC { mark /EMC pdfmark } bind def
/cairo_store_point { /cairo_point_y exch def /cairo_point_x exch def } def
/Tj { show currentpoint cairo_store_point } bind def
/TJ {
  {
    dup
    type /stringtype eq
    { show } { -0.001 mul 0 cairo_font_matrix dtransform rmoveto } ifelse
  } forall
  currentpoint cairo_store_point
} bind def
/cairo_selectfont { cairo_font_matrix aload pop pop pop 0 0 6 array astore
    cairo_font exch selectfont cairo_point_x cairo_point_y moveto } bind def
/Tf { pop /cairo_font exch def /cairo_font_matrix where
      { pop cairo_selectfont } if } bind def
/Td { matrix translate cairo_font_matrix matrix concatmatrix dup
      /cairo_font_matrix exch def dup 4 get exch 5 get cairo_store_point
      /cairo_font where { pop cairo_selectfont } if } bind def
/Tm { 2 copy 8 2 roll 6 array astore /cairo_font_matrix exch def
      cairo_store_point /cairo_font where { pop cairo_selectfont } if } bind def
/g { setgray } bind def
/rg { setrgbcolor } bind def
/d1 { setcachedevice } bind def
%%EndProlog
%%BeginSetup
%%EndSetup
%%Page: 1 1
%%BeginPageSetup
%%PageBoundingBox: 0 -1 590 201
%%EndPageSetup
q 0 -1 590 202 rectclip q
1 0.807843 0.807843 rg
101.059 199.342 m 45.855 199.342 1.102 154.963 1.102 100.221 c 1.102 45.478
 45.855 1.103 101.059 1.103 c 156.262 1.103 201.016 45.478 201.016 100.221
 c 201.016 154.963 156.262 199.342 101.059 199.342 c h
101.059 148.592 m 128 148.592 149.84 126.935 149.84 100.221 c 149.84 73.506
 128 51.849 101.059 51.849 c 74.121 51.849 52.281 73.506 52.281 100.221 
c 52.281 126.935 74.121 148.592 101.059 148.592 c h
101.059 148.592 m f
0.0509804 g
2.205173 w
2 J
1 j
[ 4.410347 2.205173] 0 d
4 M q 1 0 0 -1 0 200.443222 cm
101.059 1.102 m 45.855 1.102 1.102 45.48 1.102 100.223 c 1.102 154.965 
45.855 199.34 101.059 199.34 c 156.262 199.34 201.016 154.965 201.016 100.223
 c 201.016 45.48 156.262 1.102 101.059 1.102 c h
101.059 51.852 m 128 51.852 149.84 73.508 149.84 100.223 c 149.84 126.938
 128 148.594 101.059 148.594 c 74.121 148.594 52.281 126.938 52.281 100.223
 c 52.281 73.508 74.121 51.852 101.059 51.852 c h
101.059 51.852 m S Q
1 0.501961 0.501961 rg
149.852 100.221 m 149.852 73.9 128.008 52.56 101.059 52.56 c 74.113 52.56
 52.266 73.9 52.266 100.221 c 52.266 126.545 74.113 147.881 101.059 147.881
 c 128.008 147.881 149.852 126.545 149.852 100.221 c h
149.852 100.221 m f
0.172549 g
1.938338 w
[] 0.0 d
q 1 0 0 -1 0 200.443222 cm
149.852 100.223 m 149.852 126.543 128.008 147.883 101.059 147.883 c 74.113
 147.883 52.266 126.543 52.266 100.223 c 52.266 73.898 74.113 52.562 101.059
 52.562 c 128.008 52.562 149.852 73.898 149.852 100.223 c h
149.852 100.223 m S Q
0 g
0.859583 w
[ 1.719165 3.438331] 0 d
q 1 0 0 -1 0 200.443222 cm
101.059 18.258 m 55.793 18.258 19.098 54.953 19.098 100.223 c 19.098 145.488
 55.793 182.184 101.059 182.184 c 146.324 182.184 183.023 145.488 183.023
 100.223 c 183.023 54.953 146.324 18.258 101.059 18.258 c h
101.059 28.883 m 140.457 28.883 172.398 60.82 172.398 100.223 c 172.398
 139.621 140.457 171.559 101.059 171.559 c 61.66 171.559 29.719 139.621 
29.719 100.223 c 29.719 60.82 61.66 28.883 101.059 28.883 c h
101.059 28.883 m S Q
1.719165 w
0 J
0 j
[] 0.0 d
q 1 0 0 -1 0 200.443222 cm
143.441 59.125 m 150.238 52.793 l S Q
148.73 146.244 m 148.645 143.814 l 151.875 149.174 l 146.301 146.33 l h
148.73 146.244 m f*
0.314562 w
q -1 -0.931032 -0.931032 1 0 200.443222 cm
-52.64 -103.209 m -51.382 -104.467 l -55.785 -103.208 l -51.381 -101.951
 l h
-52.64 -103.209 m S Q
1.719165 w
q 1 0 0 -1 0 200.443222 cm
168.695 34.703 m 161.895 41.031 l S Q
163.406 160.814 m 163.492 163.244 l 160.258 157.889 l 165.836 160.728 l
 h
163.406 160.814 m f*
0.314561 w
q 1 0.931038 0.931038 -1 0 200.443222 cm
67.767 102.723 m 69.025 101.464 l 64.622 102.72 l 69.026 103.981 l h
67.767 102.723 m S Q
2.105198 w
q 1 0 0 -1 0 200.443222 cm
99.215 101.008 m 53.988 148.422 l S Q
55.73 53.849 m 55.66 56.826 l 52.098 50.041 l 58.707 53.92 l h
55.73 53.849 m f*
0.380826 w
q 0.953891 1 1 -0.953891 0 200.443222 cm
-48.92 102.395 m -47.397 100.872 l -52.729 102.395 l -47.397 103.918 l 
h
-48.92 102.395 m S Q
1 0.807843 0.807843 rg
138.746 169.217 19.773 -16.246 re f
0 g
149.059 168.92 m 149.059 168.959 l 149.051 168.967 l 149.051 168.974 l 
149.047 168.986 l 149.047 168.994 l 149.043 169.006 l 149.039 169.014 l 
149.035 169.029 l 149.031 169.037 l 149.023 169.045 l 149.016 169.06 l 149.008
 169.068 l 149 169.08 l 148.988 169.088 l 148.984 169.096 l 148.977 169.099
 l 148.973 169.103 l 148.965 169.107 l 148.961 169.111 l 148.953 169.115
 l 148.949 169.119 l 148.938 169.123 l 148.93 169.131 l 148.922 169.135 
l 148.918 169.139 l 148.906 169.139 l 148.895 169.142 l 148.887 169.146 
l 148.879 169.146 l 148.867 169.15 l 148.859 169.15 l 148.848 169.154 l 
148.824 169.154 l 148.812 169.158 l 148.773 169.158 l 148.449 169.158 146.383
 168.963 146.008 168.92 c 145.836 168.896 145.703 168.787 145.703 168.502
 c 145.703 168.244 145.898 168.244 146.227 168.244 c 147.273 168.244 147.316
 168.092 147.316 167.873 c 147.25 167.439 l 145.945 162.279 l 145.551 163.084
 144.922 163.674 143.941 163.674 c 143.965 163.193 l 145.379 163.193 145.684
 161.408 145.684 161.275 c 145.684 161.146 145.637 161.014 145.617 160.904
 c 144.527 156.639 l 144.418 156.244 144.418 156.201 144.094 155.834 c 143.137
 154.631 142.242 154.287 141.633 154.287 c 140.543 154.287 140.238 155.482
 140.238 156.334 c 140.238 157.42 140.934 160.099 141.438 161.103 c 142.109
 162.389 143.09 163.193 143.965 163.193 c 143.941 163.674 l 141.395 163.674
 138.691 160.471 138.691 157.291 c 138.691 155.244 139.891 153.807 141.59
 153.807 c 142.023 153.807 143.117 153.892 144.418 155.439 c 144.594 154.525
 145.355 153.807 146.398 153.807 c 147.164 153.807 147.668 154.307 148.012
 155.002 c 148.383 155.787 148.668 157.115 148.668 157.158 c 148.668 157.377
 148.473 157.377 148.406 157.377 c 148.188 157.377 148.164 157.291 148.098
 156.986 c 147.727 155.572 147.34 154.287 146.445 154.287 c 145.855 154.287
 145.789 154.849 145.789 155.287 c 145.789 155.81 145.836 155.959 145.922
 156.334 c h
149.059 168.92 m f*
150.664 155.33 m 150.66 155.299 l 150.652 155.264 l 150.648 155.236 l 150.609
 155.06 l 150.59 154.99 l 150.578 154.92 l 150.562 154.849 l 150.543 154.779
 l 150.539 154.744 l 150.531 154.713 l 150.52 154.685 l 150.516 154.654 
l 150.508 154.623 l 150.504 154.592 l 150.5 154.564 l 150.492 154.541 l 
150.488 154.517 l 150.48 154.49 l 150.477 154.471 l 150.477 154.451 l 150.473
 154.435 l 150.473 154.416 l 150.469 154.404 l 150.469 154.396 l 150.469
 154.002 150.773 153.807 151.102 153.807 c 151.363 153.807 151.758 153.978
 151.906 154.416 c 151.949 154.506 152.695 157.463 152.777 157.857 c 152.953
 158.576 153.348 160.099 153.477 160.685 c 153.562 160.971 154.172 161.994
 154.695 162.474 c 154.871 162.623 155.5 163.193 156.441 163.193 c 157.004
 163.193 157.328 162.928 157.355 162.928 c 156.699 162.818 156.223 162.299
 156.223 161.736 c 156.223 161.385 156.457 160.971 157.047 160.971 c 157.633
 160.971 158.246 161.471 158.246 162.256 c 158.246 163.017 157.547 163.674
 156.441 163.674 c 155.023 163.674 154.066 162.607 153.652 161.994 c 153.477
 162.974 152.695 163.674 151.672 163.674 c 150.664 163.674 150.254 162.818
 150.059 162.432 c 149.664 161.689 149.383 160.385 149.383 160.318 c 149.383
 160.099 149.598 160.099 149.645 160.099 c 149.859 160.099 149.883 160.123
 150.016 160.599 c 150.383 162.146 150.82 163.193 151.605 163.193 c 151.973
 163.193 152.277 163.017 152.277 162.189 c 152.277 161.736 152.215 161.494
 151.93 160.361 c h
150.664 155.33 m f*
69.098 79.787 m 69.094 79.76 l 69.086 79.724 l 69.082 79.693 l 69.07 79.658
 l 69.059 79.588 l 69.043 79.517 l 69.023 79.447 l 69.012 79.377 l 68.992
 79.31 l 68.977 79.24 l 68.973 79.205 l 68.961 79.174 l 68.953 79.142 l 
68.949 79.111 l 68.941 79.084 l 68.938 79.053 l 68.934 79.025 l 68.922 78.998
 l 68.918 78.978 l 68.914 78.951 l 68.91 78.928 l 68.91 78.912 l 68.906 
78.896 l 68.906 78.877 l 68.902 78.865 l 68.902 78.857 l 68.902 78.463 69.207
 78.267 69.535 78.267 c 69.797 78.267 70.188 78.443 70.336 78.877 c 70.379
 78.963 71.121 81.916 71.203 82.307 c 71.379 83.021 71.77 84.545 71.902 
85.127 c 71.988 85.412 72.594 86.432 73.117 86.912 c 73.289 87.06 73.918
 87.627 74.855 87.627 c 75.418 87.627 75.742 87.365 75.766 87.365 c 75.113
 87.256 74.637 86.736 74.637 86.174 c 74.637 85.826 74.875 85.412 75.461
 85.412 c 76.047 85.412 76.656 85.908 76.656 86.693 c 76.656 87.451 75.957
 88.103 74.855 88.103 c 73.445 88.103 72.488 87.041 72.074 86.432 c 71.902
 87.408 71.121 88.103 70.102 88.103 c 69.098 88.103 68.688 87.256 68.492
 86.865 c 68.098 86.127 67.82 84.826 67.82 84.764 c 67.82 84.545 68.035 
84.545 68.078 84.545 c 68.297 84.545 68.316 84.564 68.449 85.041 c 68.812
 86.584 69.25 87.627 70.035 87.627 c 70.402 87.627 70.707 87.451 70.707 
86.627 c 70.707 86.174 70.641 85.935 70.359 84.807 c h
69.098 79.787 m f*
583.371 45.432 m 583.371 45.471 l 583.367 45.474 l 583.367 45.482 l 583.359
 45.498 l 583.359 45.506 l 583.348 45.517 l 583.348 45.525 l 583.34 45.533
 l 583.336 45.541 l 583.324 45.545 l 583.324 45.549 l 583.316 45.557 l 583.312
 45.557 l 583.309 45.56 l 583.301 45.564 l 583.301 45.568 l 583.293 45.568
 l 583.289 45.572 l 583.281 45.576 l 583.277 45.58 l 583.266 45.58 l 583.258
 45.584 l 583.254 45.584 l 583.246 45.588 l 583.242 45.588 l 583.23 45.592
 l 583.184 45.592 l 582.965 45.592 581.578 45.463 581.328 45.432 c 581.211
 45.416 581.121 45.346 581.121 45.154 c 581.121 44.978 581.254 44.978 581.477
 44.978 c 582.176 44.978 582.207 44.877 582.207 44.732 c 582.16 44.439 l
 581.285 40.974 l 581.02 41.517 580.598 41.912 579.941 41.912 c 579.957 
41.588 l 580.906 41.588 581.109 40.392 581.109 40.303 c 581.109 40.217 581.078
 40.127 581.062 40.057 c 580.332 37.193 l 580.262 36.928 580.262 36.9 580.043
 36.654 c 579.402 35.846 578.801 35.615 578.391 35.615 c 577.66 35.615 577.457
 36.42 577.457 36.986 c 577.457 37.717 577.922 39.517 578.262 40.185 c 578.711
 41.049 579.367 41.588 579.957 41.588 c 579.941 41.912 l 578.23 41.912 576.418
 39.764 576.418 37.631 c 576.418 36.256 577.223 35.291 578.363 35.291 c 
578.652 35.291 579.387 35.349 580.262 36.389 c 580.379 35.775 580.887 35.291
 581.59 35.291 c 582.102 35.291 582.441 35.631 582.672 36.096 c 582.922 
36.619 583.113 37.514 583.113 37.541 c 583.113 37.689 582.98 37.689 582.934
 37.689 c 582.789 37.689 582.773 37.631 582.73 37.428 c 582.48 36.478 582.219
 35.615 581.621 35.615 c 581.227 35.615 581.18 35.994 581.18 36.287 c 581.18
 36.639 581.211 36.736 581.27 36.986 c h
583.371 45.432 m f*
584.453 36.314 m 584.449 36.295 l 584.441 36.271 l 584.441 36.252 l 584.434
 36.228 l 584.426 36.182 l 584.402 36.088 l 584.395 36.041 l 584.371 35.947
 l 584.367 35.924 l 584.359 35.9 l 584.348 35.842 l 584.344 35.818 l 584.34
 35.803 l 584.336 35.783 l 584.332 35.771 l 584.328 35.752 l 584.324 35.736
 l 584.324 35.701 l 584.32 35.693 l 584.32 35.689 l 584.32 35.424 584.523
 35.291 584.746 35.291 c 584.922 35.291 585.184 35.408 585.285 35.701 c 
585.312 35.76 585.812 37.748 585.867 38.01 c 585.984 38.49 586.25 39.517
 586.34 39.908 c 586.398 40.099 586.805 40.787 587.156 41.107 c 587.273 
41.209 587.695 41.588 588.328 41.588 c 588.707 41.588 588.922 41.412 588.941
 41.412 c 588.5 41.342 588.18 40.99 588.18 40.611 c 588.18 40.377 588.34
 40.099 588.734 40.099 c 589.129 40.099 589.539 40.435 589.539 40.963 c 
589.539 41.471 589.07 41.912 588.328 41.912 c 587.375 41.912 586.734 41.197
 586.457 40.787 c 586.34 41.443 585.812 41.912 585.125 41.912 c 584.453 
41.912 584.176 41.342 584.043 41.08 c 583.781 40.58 583.594 39.705 583.594
 39.662 c 583.594 39.517 583.734 39.517 583.766 39.517 c 583.914 39.517 
583.926 39.529 584.016 39.849 c 584.262 40.889 584.555 41.588 585.082 41.588
 c 585.328 41.588 585.535 41.471 585.535 40.916 c 585.535 40.611 585.492
 40.451 585.301 39.693 c h
584.453 36.314 m f*
1 0.807843 0.807843 rg
394.859 193.244 m 551.734 191.42 l 552.387 36.369 l 395.516 38.189 l h
394.859 193.244 m f
558.836 43.627 m 558.742 198.127 l 551.742 191.525 l 552.617 36.369 l h
558.836 43.627 m f*
0 g
0.296156 w
q 1 0 0 -1 0 200.443222 cm
558.836 156.816 m 558.742 2.316 l 551.742 8.918 l 552.617 164.074 l h
558.836 156.816 m S Q
1 0.807843 0.807843 rg
551.738 191.74 m 394.934 193.31 l 401.992 200.228 l 558.762 198.326 l h
551.738 191.74 m f*
0 g
0.296034 w
q 1 0 0 -1 0 200.443222 cm
394.965 7.043 m 402.02 0.184 l S Q
q 1 0 0 -1 0 200.443222 cm
401.953 0.148 m 558.805 2.105 l S Q
q 1 0 0 -1 0 200.443222 cm
394.914 7.113 m 551.535 8.934 l S Q
0.296034 w
q 1 0 0 -1 0 200.443222 cm
395.004 6.992 m 395.211 162.469 l 552.359 164.211 l S Q
442.25 113.576 m 442.191 113.482 l 442.133 113.396 l 442.078 113.314 l 
442.023 113.236 l 441.969 113.162 l 441.91 113.092 l 441.855 113.021 l 441.801
 112.963 l 441.742 112.9 l 441.688 112.846 l 441.629 112.795 l 441.574 112.748
 l 441.516 112.701 l 441.461 112.658 l 441.402 112.619 l 441.348 112.584
 l 441.23 112.521 l 441.176 112.494 l 441.117 112.467 l 441.059 112.447 
l 441 112.424 l 440.941 112.408 l 440.883 112.389 l 440.82 112.373 l 440.766
 112.361 l 440.703 112.349 l 440.645 112.342 l 440.523 112.326 l 440.398
 112.314 l 440.219 112.303 440.082 112.303 440.082 112.014 c 440.082 111.924
 440.156 111.849 440.277 111.849 c 443.078 111.849 l 443.168 111.849 443.359
 111.849 443.359 112.135 c 443.359 112.303 443.227 112.314 443.117 112.314
 c 442.773 112.342 442.414 112.463 442.414 112.842 c 442.414 113.021 442.504
 113.185 442.625 113.396 c 443.766 115.322 l 447.539 115.322 l 447.496 115.787
 l 444.051 115.787 l 447.016 120.748 l 447.496 115.787 l 447.539 115.322
 l 447.57 115.006 447.781 112.963 447.781 112.81 c 447.781 112.361 447 112.314
 446.699 112.314 c 446.488 112.314 446.336 112.314 446.336 112.014 c 446.336
 111.849 446.516 111.849 446.547 111.849 c 450.129 111.849 l 450.219 111.849
 450.395 111.849 450.395 112.15 c 450.395 112.314 450.25 112.314 450.051
 112.314 c 449.121 112.314 449.121 112.42 449.074 112.857 c 448.156 122.252
 l 448.125 122.557 448.125 122.615 447.871 122.615 c 447.633 122.615 447.57
 122.51 447.48 122.357 c h
442.25 113.576 m f*
465.281 116.764 m 465.367 116.764 l 465.414 116.767 l 465.457 116.767 l
 465.477 116.771 l 465.523 116.779 l 465.543 116.779 l 465.562 116.787 l
 465.582 116.791 l 465.605 116.795 l 465.621 116.803 l 465.66 116.818 l 
465.672 116.83 l 465.691 116.838 l 465.707 116.849 l 465.734 116.877 l 465.742
 116.892 l 465.75 116.9 l 465.754 116.908 l 465.762 116.916 l 465.766 116.924
 l 465.773 116.947 l 465.777 116.955 l 465.777 116.967 l 465.789 117.002
 l 465.789 117.014 l 465.793 117.025 l 465.793 117.068 l 465.793 117.365
 465.508 117.365 465.297 117.365 c 456.289 117.365 l 456.078 117.365 455.793
 117.365 455.793 117.068 c 455.793 116.764 456.078 116.764 456.305 116.764
 c h
465.281 116.764 m f*
465.297 113.846 m 465.336 113.849 l 465.418 113.849 l 465.441 113.853 l
 465.484 113.853 l 465.504 113.857 l 465.527 113.861 l 465.586 113.873 l
 465.605 113.881 l 465.621 113.885 l 465.66 113.9 l 465.676 113.908 l 465.691
 113.92 l 465.719 113.947 l 465.734 113.959 l 465.738 113.967 l 465.746 
113.974 l 465.754 113.99 l 465.762 114.002 l 465.77 114.017 l 465.777 114.041
 l 465.777 114.049 l 465.789 114.084 l 465.789 114.096 l 465.793 114.107
 l 465.793 114.146 l 465.793 114.451 465.508 114.451 465.281 114.451 c 456.305
 114.451 l 456.078 114.451 455.793 114.451 455.793 114.146 c 455.793 113.846
 456.078 113.846 456.289 113.846 c h
465.297 113.846 m f*
472.559 113.006 m 474.148 114.553 l 476.5 116.631 477.402 117.443 477.402
 118.943 c 477.402 120.658 476.047 121.865 474.211 121.865 c 472.512 121.865
 471.398 120.478 471.398 119.142 c 471.398 118.299 472.152 118.299 472.195
 118.299 c 472.453 118.299 472.977 118.478 472.977 119.096 c 472.977 119.486
 472.707 119.877 472.18 119.877 c 472.062 119.877 472.031 119.877 471.984
 119.861 c 472.332 120.842 473.145 121.396 474.016 121.396 c 475.383 121.396
 476.031 120.178 476.031 118.943 c 476.031 117.744 475.277 116.553 474.453
 115.623 c 471.566 112.404 l 471.398 112.24 471.398 112.209 471.398 111.849
 c 476.977 111.849 l 477.402 114.467 l 477.023 114.467 l 476.949 114.014
 476.844 113.349 476.691 113.123 c 476.59 113.006 475.594 113.006 475.262
 113.006 c h
472.559 113.006 m f*
482.18 117.455 m 483.879 117.455 l 483.379 115.232 483.246 114.588 483.246
 113.576 c 483.246 113.349 483.246 112.947 483.367 112.435 c 483.516 111.771
 483.684 111.682 483.91 111.682 c 484.211 111.682 484.523 111.955 484.523
 112.252 c 484.523 112.342 484.523 112.373 484.434 112.584 c 484 113.67 
484 114.646 484 115.064 c 484 115.861 484.105 116.674 484.27 117.455 c 485.984
 117.455 l 486.18 117.455 486.719 117.455 486.719 117.967 c 486.719 118.33
 486.406 118.33 486.117 118.33 c 481.082 118.33 l 480.75 118.33 480.18 118.33
 479.516 117.623 c 478.992 117.033 478.598 116.342 478.598 116.267 c 478.598
 116.252 478.598 116.119 478.781 116.119 c 478.902 116.119 478.93 116.182
 479.023 116.299 c 479.758 117.455 480.629 117.455 480.934 117.455 c 481.789
 117.455 l 481.309 115.635 480.496 113.818 479.863 112.447 c 479.742 112.224
 479.742 112.193 479.742 112.088 c 479.742 111.803 479.984 111.682 480.18
 111.682 c 480.629 111.682 480.75 112.103 480.934 112.658 c 481.141 113.349
 481.141 113.381 481.336 114.135 c h
482.18 117.455 m f*
488.875 112.736 m 488.867 112.689 l 488.863 112.67 l 488.855 112.646 l 
488.848 112.596 l 488.824 112.502 l 488.812 112.451 l 488.801 112.404 l 
488.789 112.353 l 488.785 112.33 l 488.781 112.31 l 488.773 112.287 l 488.773
 112.267 l 488.766 112.248 l 488.762 112.224 l 488.758 112.209 l 488.754
 112.189 l 488.75 112.174 l 488.746 112.154 l 488.746 112.127 l 488.742 
112.115 l 488.742 112.103 l 488.738 112.096 l 488.738 112.088 l 488.738 
111.818 488.949 111.682 489.176 111.682 c 489.359 111.682 489.629 111.803
 489.73 112.103 c 489.762 112.166 490.273 114.209 490.336 114.478 c 490.453
 114.974 490.727 116.029 490.816 116.432 c 490.875 116.631 491.297 117.334
 491.656 117.666 c 491.777 117.771 492.215 118.162 492.863 118.162 c 493.25
 118.162 493.477 117.982 493.492 117.982 c 493.039 117.908 492.711 117.549
 492.711 117.158 c 492.711 116.916 492.875 116.631 493.281 116.631 c 493.688
 116.631 494.109 116.974 494.109 117.517 c 494.109 118.041 493.625 118.494
 492.863 118.494 c 491.883 118.494 491.223 117.76 490.938 117.334 c 490.816
 118.014 490.273 118.494 489.57 118.494 c 488.875 118.494 488.59 117.908
 488.453 117.639 c 488.184 117.123 487.988 116.224 487.988 116.182 c 487.988
 116.029 488.137 116.029 488.168 116.029 c 488.32 116.029 488.336 116.045
 488.426 116.373 c 488.68 117.443 488.98 118.162 489.523 118.162 c 489.777
 118.162 489.988 118.041 489.988 117.471 c 489.988 117.158 489.941 116.99
 489.746 116.209 c h
488.875 112.736 m f*
500.117 120.947 m 500.129 120.994 l 500.145 121.041 l 500.156 121.088 l
 500.168 121.131 l 500.184 121.174 l 500.195 121.213 l 500.242 121.318 l
 500.262 121.346 l 500.309 121.408 l 500.336 121.432 l 500.398 121.478 l
 500.438 121.502 l 500.477 121.521 l 500.52 121.537 l 500.57 121.557 l 500.621
 121.572 l 500.648 121.576 l 500.742 121.599 l 500.777 121.599 l 500.812
 121.607 l 500.848 121.611 l 500.887 121.615 l 500.926 121.623 l 500.969
 121.627 l 501.008 121.627 l 501.051 121.631 l 501.145 121.639 l 501.195
 121.639 l 501.297 121.646 l 501.352 121.646 l 501.406 121.65 l 501.523 
121.65 l 501.582 121.654 l 501.711 121.654 l 502.164 121.654 502.281 121.654
 502.281 121.939 c 502.281 122.119 502.117 122.119 502.043 122.119 c 497.82
 122.119 l 497.715 122.119 497.531 122.119 497.531 121.818 c 497.531 121.654
 497.668 121.654 497.953 121.654 c 497.984 121.654 498.27 121.654 498.523
 121.623 c 498.797 121.592 498.934 121.576 498.934 121.381 c 498.934 121.322
 498.918 121.275 498.871 121.096 c 496.855 113.021 l 496.703 112.435 496.676
 112.314 495.488 112.314 c 495.23 112.314 495.082 112.314 495.082 112.014
 c 495.082 111.849 495.215 111.849 495.488 111.849 c 502.449 111.849 l 502.812
 111.849 502.828 111.849 502.918 112.103 c 504.102 115.353 l 504.164 115.517
 504.164 115.545 504.164 115.56 c 504.164 115.623 504.117 115.728 503.984
 115.728 c 503.848 115.728 503.832 115.65 503.73 115.408 c 503.215 114.029
 502.555 112.314 499.953 112.314 c 498.539 112.314 l 498.328 112.314 498.297
 112.314 498.207 112.326 c 498.059 112.342 498.016 112.361 498.016 112.478
 c 498.016 112.525 498.016 112.553 498.09 112.826 c h
500.117 120.947 m f*
0.536732 w
q 1 0 0 -1 0 200.443222 cm
568.258 155.27 m 568.219 4.934 l S Q
568.258 45.818 m 567.719 46.353 l 568.258 44.474 l 568.793 46.353 l h
568.258 45.818 m f*
0.134183 w
q -0.000269195 1 1 0.000269195 0 200.443222 cm
-154.778 568.216 m -154.243 567.677 l -156.122 568.216 l -154.243 568.751
 l h
-154.778 568.216 m S Q
568.219 194.865 m 568.754 194.33 l 568.219 196.209 l 567.68 194.33 l h
568.219 194.865 m f*
q 0.000269195 -1 -1 -0.000269195 0 200.443222 cm
5.731 -568.217 m 6.266 -568.752 l 4.387 -568.218 l 6.266 -567.678 l h
5.731 -568.217 m S Q
0.536732 w
q 1 0 0 -1 0 200.443222 cm
558.953 2.746 m 577.512 2.746 l S Q
q 1 0 0 -1 0 200.443222 cm
559.449 156.629 m 576.816 156.629 l S Q
q 1 0 0 -1 0 200.443222 cm
397.535 175.258 m 550.184 175.234 l S Q
398.18 25.185 m 398.719 25.721 l 396.84 25.185 l 398.719 24.646 l h
398.18 25.185 m f*
0.134183 w
q 1 0.00015682 0.00015682 -1 0 200.443222 cm
398.152 175.32 m 398.691 174.785 l 396.812 175.32 l 398.691 175.859 l h
398.152 175.32 m S Q
549.539 25.209 m 549.004 24.67 l 550.883 25.209 l 549.004 25.744 l h
549.539 25.209 m f*
q -1 -0.00015682 -0.00015682 1 0 200.443222 cm
-549.512 -175.321 m -548.976 -175.86 l -550.855 -175.321 l -548.976 -174.785
 l h
-549.512 -175.321 m S Q
0.536732 w
q 1 0 0 -1 0 200.443222 cm
552.422 165.969 m 552.422 184.531 l S Q
q 1 0 0 -1 0 200.443222 cm
395.082 166.469 m 395.082 183.832 l S Q
q 1 0 0 -1 0 200.443222 cm
561.824 163.43 m 567.656 157.477 l S Q
562.277 37.474 m 562.27 38.232 l 561.336 36.517 l 563.035 37.482 l h
562.277 37.474 m f*
0.0958514 w
q 0.97966 1 1 -0.97966 0 200.443222 cm
197.921 368.382 m 198.303 368 l 196.962 368.381 l 198.303 368.765 l h
197.921 368.382 m S Q
567.207 42.51 m 567.215 41.748 l 568.145 43.467 l 566.449 42.502 l h
567.207 42.51 m f*
q -0.97966 -1 -1 0.97966 0 200.443222 cm
-202.954 -368.381 m -202.57 -368.766 l -203.911 -368.381 l -202.571 -367.998
 l h
-202.954 -368.381 m S Q
0.536732 w
q 1 0 0 -1 0 200.443222 cm
553.793 164.43 m 571.156 164.43 l S Q
1 g
461.824 31.283 25.086 -11.488 re f
0 g
465.27 21.881 m 466.863 23.424 l 469.203 25.498 470.105 26.307 470.105 
27.81 c 470.105 29.521 468.754 30.724 466.918 30.724 c 465.227 30.724 464.113
 29.342 464.113 28.006 c 464.113 27.166 464.863 27.166 464.91 27.166 c 465.164
 27.166 465.691 27.346 465.691 27.959 c 465.691 28.349 465.418 28.74 464.895
 28.74 c 464.773 28.74 464.742 28.74 464.699 28.724 c 465.043 29.701 465.855
 30.256 466.727 30.256 c 468.094 30.256 468.738 29.041 468.738 27.81 c 468.738
 26.611 467.988 25.424 467.16 24.49 c 464.277 21.279 l 464.113 21.115 464.113
 21.084 464.113 20.724 c 469.684 20.724 l 470.105 23.338 l 469.73 23.338
 l 469.652 22.885 469.547 22.224 469.398 21.998 c 469.293 21.881 468.305
 21.881 467.973 21.881 c h
465.27 21.881 m f*
474.574 26.322 m 476.273 26.322 l 475.773 24.103 475.641 23.455 475.641
 22.451 c 475.641 22.224 475.641 21.818 475.762 21.307 c 475.91 20.646 476.078
 20.557 476.301 20.557 c 476.605 20.557 476.918 20.83 476.918 21.127 c 476.918
 21.217 476.918 21.248 476.828 21.459 c 476.395 22.541 476.395 23.517 476.395
 23.935 c 476.395 24.732 476.5 25.541 476.66 26.322 c 478.375 26.322 l 478.57
 26.322 479.109 26.322 479.109 26.834 c 479.109 27.193 478.797 27.193 478.508
 27.193 c 473.477 27.193 l 473.148 27.193 472.578 27.193 471.918 26.49 c
 471.391 25.9 471 25.213 471 25.135 c 471 25.119 471 24.986 471.18 24.986
 c 471.301 24.986 471.332 25.049 471.422 25.17 c 472.156 26.322 473.027 
26.322 473.332 26.322 c 474.188 26.322 l 473.703 24.506 472.895 22.689 472.262
 21.322 c 472.145 21.099 472.145 21.068 472.145 20.963 c 472.145 20.678 
472.383 20.557 472.578 20.557 c 473.027 20.557 473.148 20.978 473.332 21.533
 c 473.539 22.224 473.539 22.256 473.734 23.006 c h
474.574 26.322 m f*
481.262 21.607 m 481.258 21.588 l 481.25 21.564 l 481.25 21.541 l 481.242
 21.517 l 481.234 21.471 l 481.223 21.424 l 481.211 21.373 l 481.188 21.279
 l 481.176 21.228 l 481.172 21.205 l 481.168 21.185 l 481.16 21.162 l 481.16
 21.142 l 481.152 21.119 l 481.145 21.08 l 481.137 21.049 l 481.133 21.029
 l 481.133 21.002 l 481.129 20.99 l 481.129 20.978 l 481.125 20.971 l 481.125
 20.963 l 481.125 20.693 481.336 20.557 481.562 20.557 c 481.742 20.557 
482.016 20.678 482.117 20.978 c 482.148 21.041 482.66 23.08 482.719 23.349
 c 482.836 23.846 483.109 24.896 483.199 25.303 c 483.258 25.498 483.68 
26.201 484.039 26.533 c 484.16 26.639 484.594 27.029 485.242 27.029 c 485.633
 27.029 485.855 26.849 485.871 26.849 c 485.422 26.771 485.094 26.412 485.094
 26.025 c 485.094 25.783 485.254 25.498 485.66 25.498 c 486.066 25.498 486.488
 25.842 486.488 26.385 c 486.488 26.908 486.004 27.361 485.242 27.361 c 
484.266 27.361 483.605 26.623 483.32 26.201 c 483.199 26.877 482.66 27.361
 481.953 27.361 c 481.262 27.361 480.977 26.771 480.844 26.506 c 480.57 
25.99 480.379 25.092 480.379 25.049 c 480.379 24.896 480.527 24.896 480.555
 24.896 c 480.707 24.896 480.723 24.912 480.812 25.24 c 481.066 26.307 481.367
 27.029 481.91 27.029 c 482.164 27.029 482.375 26.908 482.375 26.338 c 482.375
 26.025 482.328 25.857 482.133 25.08 c h
481.262 21.607 m f*
1 g
563.695 122.748 10.434 -14.398 re f
0 g
569.469 120.166 m 569.484 120.221 l 569.496 120.275 l 569.512 120.326 l
 569.523 120.373 l 569.543 120.42 l 569.555 120.467 l 569.594 120.545 l 
569.609 120.584 l 569.633 120.619 l 569.656 120.65 l 569.684 120.685 l 569.715
 120.713 l 569.785 120.767 l 569.828 120.791 l 569.922 120.83 l 569.977 
120.853 l 570.039 120.869 l 570.066 120.877 l 570.102 120.881 l 570.137 
120.892 l 570.172 120.9 l 570.25 120.908 l 570.293 120.916 l 570.332 120.92
 l 570.375 120.928 l 570.426 120.932 l 570.473 120.932 l 570.52 120.935 
l 570.57 120.939 l 570.68 120.947 l 570.738 120.951 l 570.793 120.955 l 
570.855 120.955 l 570.918 120.959 l 571.262 120.959 l 571.77 120.959 571.902
 120.959 571.902 121.283 c 571.902 121.482 571.719 121.482 571.637 121.482
 c 566.887 121.482 l 566.766 121.482 566.562 121.482 566.562 121.146 c 566.562
 120.959 566.715 120.959 567.039 120.959 c 567.07 120.959 567.391 120.959
 567.68 120.928 c 567.984 120.892 568.137 120.877 568.137 120.654 c 568.137
 120.588 568.117 120.537 568.07 120.338 c 565.801 111.26 l 565.633 110.596
 565.598 110.463 564.266 110.463 c 563.977 110.463 563.809 110.463 563.809
 110.127 c 563.809 109.939 563.961 109.939 564.266 109.939 c 572.09 109.939
 l 572.496 109.939 572.516 109.939 572.613 110.228 c 573.949 113.877 l 574.02
 114.064 574.02 114.096 574.02 114.111 c 574.02 114.182 573.969 114.299 
573.812 114.299 c 573.66 114.299 573.645 114.213 573.527 113.943 c 572.953
 112.389 572.211 110.463 569.285 110.463 c 567.695 110.463 l 567.457 110.463
 567.426 110.463 567.324 110.478 c 567.152 110.494 567.105 110.517 567.105
 110.646 c 567.105 110.697 567.105 110.732 567.191 111.037 c h
569.469 120.166 m f*
Q Q
showpage
%%Trailer
end restore
%%EOF
